* Schematics Netlist *



E_U1         n4 0 VALUE {LIMIT(V(0,n3)*1E6,-15V,+15V)}
V_V2         n1 0 DC 0V AC 1V 
R_R1         n2 n1  4.8679k  
R_R3         n3 n4  25.636k  
R_R2         0 n2  200  
C_C1         n2 n3  125n  
C_C2         n2 n4  4.3053u  
