* C:\Users\Daniel\Desktop\ag-trafo\v3\circuito passa faixa.sch

* Schematics Version 9.1 - Web Update 1
* Fri Sep 16 22:12:42 2016



** Analysis setup **
.ac DEC 1001 0.1 1.00K


* From [PSPICE NETLIST] section of pspiceev.ini:
.lib "nom.lib"

.INC "circuito passa faixa.net"
.INC "circuito passa faixa.als"


.probe


.END
